<?xml version="1.0" encoding="UTF-8"?>
<svg width="19px" height="21px" viewBox="0 0 19 21" version="1.1" xmlns="http://www.w3.org/2000/svg" xmlns:xlink="http://www.w3.org/1999/xlink">
    <title>icons/ic_comments_outline</title>
    <g id="Page-1" stroke="none" stroke-width="1" fill="none" fill-rule="evenodd">
        <g id="Desktop-/-Activity-Feed" transform="translate(-513.000000, -738.000000)">
            <g id="Unresolved-Post" transform="translate(426.000000, 437.000000)">
                <g id="icons/ic_comments_outline" transform="translate(85.898876, 300.057971)">
                    <rect id="Rectangle" x="0" y="0" width="22" height="22"></rect>
                    <path d="M6.05,16.5001652 L7.11140278,16.5001652 L7.11140278,16.5001652 L7.11140278,19.8 L11.4728055,16.5001652 L15.95,16.5001652 C17.7725397,16.5001652 19.25,15.0227049 19.25,13.2001652 L19.25,5.5 C19.25,3.67746033 17.7725397,2.2 15.95,2.2 L6.05,2.2 C4.22746033,2.2 2.75,3.67746033 2.75,5.5 L2.75,13.2001652 C2.75,15.0227049 4.22746033,16.5001652 6.05,16.5001652 Z" id="Path-2" stroke="#0880FF" stroke-width="1.43"></path>
                </g>
            </g>
        </g>
    </g>
</svg>