<svg class="h-full" width="280" height="106" viewBox="0 0 280 106" fill="none" xmlns="http://www.w3.org/2000/svg">
    <?php echo ( $withClip ) ? '<clipPath id="clipShare"><path fill-rule="evenodd" clip-rule="evenodd" d="M265.392 -9.88382C276.158 -9.88382 282.897 1.77291 277.529 11.1096L227.416 98.2694C224.92 102.611 220.297 105.286 215.291 105.286L14.5211 105.286C3.76619 105.286 -2.97428 93.6511 2.37173 84.3144L52.2779 -2.84539C54.7706 -7.19877 59.4008 -9.88379 64.4155 -9.8838L108.808 -9.88383L265.392 -9.88382Z" fill="#4984FF"/></clipPath>' : '<path class="fill-blue-1" fill-rule="evenodd" clip-rule="evenodd" d="M265.392 -9.88382C276.158 -9.88382 282.897 1.77291 277.529 11.1096L227.416 98.2694C224.92 102.611 220.297 105.286 215.291 105.286L14.5211 105.286C3.76619 105.286 -2.97428 93.6511 2.37173 84.3144L52.2779 -2.84539C54.7706 -7.19877 59.4008 -9.88379 64.4155 -9.8838L108.808 -9.88383L265.392 -9.88382Z" fill="#4984FF"/>';?>
</svg>
